2021 Cálculo do IGC Ranking
…
VERIFICAR A MÉDIA POR UF

filtro <- dados %>% 
  group_by(`Sigla da UF`) %>%  
  summarise( media = mean(`IGC (Contínuo)`)) %>% 
  arrange(media)
levels <- filtro$`Sigla da UF`
filtro$`Sigla da UF` <- factor(filtro$`Sigla da UF`, levels=levels, ordered=TRUE)
filtro

## # A tibble: 27 x 2
##    `Sigla da UF` media
##    <ord>         <dbl>
##  1 AL             2.21
##  2 AP             2.22
##  3 TO             2.32
##  4 PI             2.39
##  5 MS             2.39
##  6 MT             2.40
##  7 PE             2.41
##  8 PA             2.47
##  9 MA             2.49
## 10 AM             2.49
## # ... with 17 more rows
…
